@MULTI-EDIT VERSION 7.0    C:\PROJECTS\TOMB21\PSX\PIX\
/MISC=1/I=1/V=2/SC=2/EV=0/CC=1
/W=2/WNM=A/A=1/WA=0/FN=?No-File?/C=1/L=1/R=1/IL=1/WS=0/IS=0/D=0/LS=0/BI=7/BTML=1/RM=254/LT=\C\L/FLL=0/SN=2
/G_STR=CALC_PARAMS
/X=18/Y=8/BASE=16
/G_STR=DIR_SORT_STR
e
/G_INT=CUR_SCRN
1
/G_INT=DEF_SCRN_STYLE
1
/G_INT=CURSOR_EOB
1
/G_INT=AUTO_ARRANGE_ICONS
1
/G_INT=DIR_IMMEDIATE
1
/G_INT=BINARY_MODE
1
/G_STR=DEF_FSR_SWITCHES
I
/G_STR=DEF_FS_SWITCHES
I
/G_STR=DEF_REPL_SWITCHES
PI
/G_STR=DEF_SWITCHES
I
/G_INT=DEFAULT_INSERT_MODE
1
/G_STR=FILE?!_0
5
/G_STR=EXTENSIONS
.
/G_STR=FORMAT_CODE_DELIMIT
.
/G_INT=EXEC_ENV_MODE
1
/G_STR=FC_CONFIG_STR
/SH=0/CC=79/IC=48/RW=30208/NKEY=30208/PKEY=33792/RKEY=5118/KEYSTR=NextDif<CtrlPGDN> PrevDif<CtrlPGUP> Report<AltShftR>
/G_STR=FRSWITCHES
I
/G_STR=FSWITCHES
I
/G_STR=MAIN?!_0
1
/G_INT=KEYDELAY
1
/G_STR=PRINTER_TYPE
HP LASERII
/G_STR=PRINTER_DEVICE
LPT1
/G_INT=NO_CONFIRM_OVERWRITE
1
/G_INT=RESTORE
1
/G_INT=SPLIT_EDGE_MODE
1
/G_STR=REPL_SWITCHES
PI
/G_STR=SWITCHES
I
/G_INT=SEARCH_INTR_STYLE
1
/G_INT=REG_EXP_STYLE
1
