   32360 Temp Alloc         0 Txtr Pages     1732 Mesh Ptrs 
  172524 Meshes         19520 Anims          2940 Change    
    4616 Ranges          4468 Commands       4640 Bones     
  400728 Frames             0 Room Txtrs    16320 Room Infos
  130328 Room Mesh      23024 Room Door    109184 Room Floor
    6384 Room Lites      5020 SttMshInfs    28304 Floor Data
   34816 ITEMS!!          176 Cameras         464 Sound FX  
   11592 Boxes          15784 Overlaps      11600 GroundZone
       0 FlyZone           92 AniTxt Rngs        0 Cine Frms 
       0 LdDem Buf          0 SvDem Buf         0 Cine FX   
       0 Mummy HdTn      1216 Xtra DR Stf     2200 FX_Array  
    1292 Creat.Data     57960 Creat.LOT       872 Samp Infos
       0 Samples            0 Samp Offs         0 Rlg Ball Stf
       0 Skidoo Stuff         0 LdPic Buf         0 FMV Buf   
       0 Poly Bufs          0 O-Tables          0 CLUTs     
   28016 Text Infos      2352 Spr Infos      7868 Script Dat
---->Total Memory Used 1111K of 3000K<----
