   30684 Temp Alloc         0 Txtr Pages     1500 Mesh Ptrs 
  163836 Meshes         16832 Anims          2624 Change    
    4176 Ranges          4288 Commands       4160 Bones     
  434468 Frames             0 Room Txtrs     3520 Room Infos
   37052 Room Mesh       3536 Room Door     39360 Room Floor
    2592 Room Lites       600 SttMshInfs     8328 Floor Data
   34816 ITEMS!!           32 Cameras          16 Sound FX  
    3584 Boxes           6848 Overlaps       3584 GroundZone
       0 FlyZone          148 AniTxt Rngs        0 Cine Frms 
       0 LdDem Buf          0 SvDem Buf         0 Cine FX   
       0 Mummy HdTn       192 Xtra DR Stf     2200 FX_Array  
    1292 Creat.Data     17920 Creat.LOT       800 Samp Infos
       0 Samples            0 Samp Offs         0 Rlg Ball Stf
       0 Skidoo Stuff         0 LdPic Buf         0 FMV Buf   
       0 Poly Bufs          0 O-Tables          0 CLUTs     
   30112 Text Infos      2368 Spr Infos      7868 Script Dat
---->Total Memory Used 848K of 3000K<----
