    4376 Temp Alloc         0 Txtr Pages      412 Mesh Ptrs 
   33200 Meshes           608 Anims            32 Change    
      56 Ranges            28 Commands       1312 Bones     
  900176 Frames             0 Room Txtrs      480 Room Infos
   10908 Room Mesh        472 Room Door     12072 Room Floor
     120 Room Lites       300 SttMshInfs     1624 Floor Data
   34816 ITEMS!!            0 Cameras           0 Sound FX  
     704 Boxes            944 Overlaps        704 GroundZone
       0 FlyZone            4 AniTxt Rngs    53408 Cine Frms 
       0 LdDem Buf          0 SvDem Buf         0 Cine FX   
       0 Mummy HdTn         0 Xtra DR Stf     2200 FX_Array  
    1292 Creat.Data      3520 Creat.LOT       680 Samp Infos
       0 Samples            0 Samp Offs         0 Rlg Ball Stf
       0 Skidoo Stuff         0 LdPic Buf         0 FMV Buf   
       0 Poly Bufs          0 O-Tables          0 CLUTs     
   13136 Text Infos      2176 Spr Infos      7300 Script Dat
---->Total Memory Used 1061K of 3000K<----
