    4364 Temp Alloc         0 Txtr Pages      420 Mesh Ptrs 
   32856 Meshes          1568 Anims            32 Change    
      56 Ranges            28 Commands       1488 Bones     
  652312 Frames             0 Room Txtrs      160 Room Infos
    1544 Room Mesh         72 Room Door      1960 Room Floor
      48 Room Lites       100 SttMshInfs      244 Floor Data
   34816 ITEMS!!            0 Cameras           0 Sound FX  
     168 Boxes            156 Overlaps        176 GroundZone
       0 FlyZone            4 AniTxt Rngs    65184 Cine Frms 
       0 LdDem Buf          0 SvDem Buf         0 Cine FX   
       0 Mummy HdTn         0 Xtra DR Stf     2200 FX_Array  
    1292 Creat.Data       840 Creat.LOT       680 Samp Infos
       0 Samples            0 Samp Offs         0 Rlg Ball Stf
       0 Skidoo Stuff         0 LdPic Buf         0 FMV Buf   
       0 Poly Bufs          0 O-Tables          0 CLUTs     
   17760 Text Infos      2176 Spr Infos      7868 Script Dat
---->Total Memory Used 811K of 3000K<----
