    4384 Temp Alloc         0 Txtr Pages      428 Mesh Ptrs 
   42572 Meshes           480 Anims            60 Change    
     128 Ranges            52 Commands       1536 Bones     
  137112 Frames             0 Room Txtrs      560 Room Infos
    8108 Room Mesh        472 Room Door     14552 Room Floor
      96 Room Lites       280 SttMshInfs     1568 Floor Data
   34816 ITEMS!!            0 Cameras           0 Sound FX  
     776 Boxes           1204 Overlaps        784 GroundZone
       0 FlyZone          156 AniTxt Rngs    18992 Cine Frms 
       0 LdDem Buf          0 SvDem Buf         0 Cine FX   
       0 Mummy HdTn         0 Xtra DR Stf     2200 FX_Array  
    1292 Creat.Data      3880 Creat.LOT       680 Samp Infos
       0 Samples            0 Samp Offs         0 Rlg Ball Stf
       0 Skidoo Stuff         0 LdPic Buf         0 FMV Buf   
       0 Poly Bufs          0 O-Tables          0 CLUTs     
   12928 Text Infos      1760 Spr Infos      7300 Script Dat
---->Total Memory Used 292K of 3000K<----
