       0 Temp Alloc         0 Txtr Pages     1636 Mesh Ptrs 
  167104 Meshes         15200 Anims          2148 Change    
    3136 Ranges          3048 Commands       5184 Bones     
  404572 Frames             0 Room Txtrs    13760 Room Infos
  114288 Room Mesh      23408 Room Door    127784 Room Floor
    3840 Room Lites      1840 SttMshInfs    21476 Floor Data
   19456 ITEMS!!          144 Cameras           0 Sound FX  
    6872 Boxes          25424 Overlaps       3440 GroundZone
    3440 FlyZone           36 AniTxt Rngs        0 Cine Frms 
       0 LdDem Buf          0 SvDem Buf         0 Cine FX   
       0 Mummy HdTn      2048 Xtra DR Stf     4000 FX_Array  
     340 Creat.Data     34360 Creat.LOT       888 Samp Infos
       0 Samples            0 Samp Offs        80 Rlg Ball Stf
       0 Skidoo Stuff         0 LdPic Buf         0 FMV Buf   
       0 Poly Bufs          0 O-Tables          0 CLUTs     
   32400 Text Infos      2912 Spr Infos      7128 Script Dat
---->Total Memory Used 1026K of 1124K<----
