   21820 Temp Alloc         0 Txtr Pages     1588 Mesh Ptrs 
  170264 Meshes         19968 Anims          3360 Change    
    5168 Ranges          4552 Commands       4208 Bones     
  435340 Frames             0 Room Txtrs    15920 Room Infos
  138988 Room Mesh      16048 Room Door     93568 Room Floor
    9336 Room Lites      4940 SttMshInfs    29040 Floor Data
   34816 ITEMS!!          352 Cameras          96 Sound FX  
    9912 Boxes          11168 Overlaps       9920 GroundZone
       0 FlyZone          124 AniTxt Rngs        0 Cine Frms 
       0 LdDem Buf          0 SvDem Buf         0 Cine FX   
       0 Mummy HdTn       960 Xtra DR Stf     2200 FX_Array  
    1292 Creat.Data     49560 Creat.LOT       912 Samp Infos
       0 Samples            0 Samp Offs         0 Rlg Ball Stf
       0 Skidoo Stuff         0 LdPic Buf         0 FMV Buf   
       0 Poly Bufs          0 O-Tables          0 CLUTs     
   28384 Text Infos      2352 Spr Infos      7868 Script Dat
---->Total Memory Used 1107K of 3000K<----
