   13940 Temp Alloc         0 Txtr Pages     2152 Mesh Ptrs 
  237108 Meshes         18208 Anims          2672 Change    
    4240 Ranges          3308 Commands       6144 Bones     
  432708 Frames             0 Room Txtrs     7120 Room Infos
  114464 Room Mesh       7836 Room Door    100256 Room Floor
    1992 Room Lites       700 SttMshInfs    25740 Floor Data
   34816 ITEMS!!          112 Cameras          16 Sound FX  
    8488 Boxes          14008 Overlaps       8496 GroundZone
    4248 FlyZone          452 AniTxt Rngs        0 Cine Frms 
       0 LdDem Buf          0 SvDem Buf         0 Cine FX   
       0 Mummy HdTn       128 Xtra DR Stf     2200 FX_Array  
    1224 Creat.Data     42440 Creat.LOT       632 Samp Infos
       0 Samples            0 Samp Offs         0 Rlg Ball Stf
       0 Skidoo Stuff         0 LdPic Buf         0 FMV Buf   
       0 Poly Bufs          0 O-Tables          0 CLUTs     
   30304 Text Infos      2352 Spr Infos      6508 Script Dat
---->Total Memory Used 1108K of 3000K<----
