       8 Temp Alloc         0 Txtr Pages     1692 Mesh Ptrs 
  190748 Meshes         15936 Anims          2244 Change    
    3288 Ranges          3616 Commands       5312 Bones     
  445264 Frames             0 Room Txtrs     7680 Room Infos
  113024 Room Mesh       7260 Room Door     39808 Room Floor
    2328 Room Lites      1040 SttMshInfs     7228 Floor Data
   19456 ITEMS!!          224 Cameras          80 Sound FX  
    3024 Boxes           3616 Overlaps       3024 GroundZone
    1512 FlyZone           44 AniTxt Rngs        0 Cine Frms 
       0 LdDem Buf          0 SvDem Buf         0 Cine FX   
       0 Mummy HdTn      1472 Xtra DR Stf     4000 FX_Array  
     340 Creat.Data     15120 Creat.LOT       976 Samp Infos
       0 Samples            0 Samp Offs         0 Rlg Ball Stf
       0 Skidoo Stuff         0 LdPic Buf         0 FMV Buf   
       0 Poly Bufs          0 O-Tables          0 CLUTs     
   35360 Text Infos      3248 Spr Infos      7128 Script Dat
---->Total Memory Used 922K of 1124K<----
