   29004 Temp Alloc         0 Txtr Pages     1688 Mesh Ptrs 
  148440 Meshes         18272 Anims          2984 Change    
    4720 Ranges          4192 Commands       4944 Bones     
  403200 Frames             0 Room Txtrs    14160 Room Infos
  161680 Room Mesh      16708 Room Door    125552 Room Floor
    3360 Room Lites       540 SttMshInfs    26132 Floor Data
   34816 ITEMS!!          384 Cameras         512 Sound FX  
    8368 Boxes          14980 Overlaps       8368 GroundZone
       0 FlyZone          364 AniTxt Rngs        0 Cine Frms 
       0 LdDem Buf          0 SvDem Buf         0 Cine FX   
       0 Mummy HdTn       384 Xtra DR Stf     2200 FX_Array  
    1292 Creat.Data     41840 Creat.LOT       840 Samp Infos
       0 Samples            0 Samp Offs         0 Rlg Ball Stf
       0 Skidoo Stuff         0 LdPic Buf         0 FMV Buf   
       0 Poly Bufs          0 O-Tables          0 CLUTs     
   25280 Text Infos      2352 Spr Infos      7300 Script Dat
---->Total Memory Used 1088K of 3000K<----
