       0 Temp Alloc         0 Txtr Pages     1304 Mesh Ptrs 
  146304 Meshes         13984 Anims          2016 Change    
    3000 Ranges          3132 Commands       4144 Bones     
  402156 Frames             0 Room Txtrs     6400 Room Infos
  130768 Room Mesh       6752 Room Door     78752 Room Floor
    1776 Room Lites      1360 SttMshInfs    22704 Floor Data
   19456 ITEMS!!          176 Cameras           0 Sound FX  
    9536 Boxes          12492 Overlaps       9536 GroundZone
    4768 FlyZone           12 AniTxt Rngs        0 Cine Frms 
       0 LdDem Buf          0 SvDem Buf         0 Cine FX   
       0 Mummy HdTn       448 Xtra DR Stf     4000 FX_Array  
     340 Creat.Data     47680 Creat.LOT       824 Samp Infos
       0 Samples            0 Samp Offs         0 Rlg Ball Stf
       0 Skidoo Stuff         0 LdPic Buf         0 FMV Buf   
       0 Poly Bufs          0 O-Tables          0 CLUTs     
   27216 Text Infos      2896 Spr Infos      7128 Script Dat
---->Total Memory Used 948K of 1124K<----
